var a:array [1..100,1..100] of longint;{komponentu svyaznosti,opredelenie legat li 
oni v oodnoy komponente}

b: array [1..100] of byte;
k,l,h,i,j,y:integer; s,z:longint;
procedure graf (n:integer);
var x:integer;
begin
    For x:=1 to k do
     if (a[n,x] >0) and(b[x]=0)   then
     begin
     b[x]:=1;
          graf(x);
          end;
end;
    begin
readln(k,l);
For i:=1 to k do begin
    For j:=1 to k do begin read(a[i,j]); end;
    readln         end;
b[l]:=1;
graf(l);
For i:=1 to k do if b[i]=1 then inc(s);
write(s);
end.


const max=1000000000;
var a:array[1..100,1..100] of longint;
    d,vkl:array[1..100] of longint;
    i,j,n,m,f:byte;
    s,min:longint;

BEGIN
assign(input,'input.txt');
reset(input);
readln(n,s,f);
for i:=1 to n do
    for j:=1 to n do  read(a[i,j]);
for i:=1 to n do
    begin d[i]:=max; vkl[i]:=0; end;
d[s]:=0;
for j:=1 to n do
      begin
      min:=max;
      for i:=1 to n do
          if (vkl[i]=0)and(d[i]<min) then begin min:=d[i]; m:=i; end;
      for i:=1 to n do
          if (d[i]>d[m]+a[m,i]) and(a[m,i]<>-1) then d[i]:=d[m]+a[m,i];
      vkl[m]:=1;
      end;
if d[f]<max then writeln(d[f])  else write(-1);
END.