 21  37  40 109 120  62 114 104 106  60  18   5  12  69  82  48  73  64  81  93   1  34 124 144 118  15  75   4  41  39   6  23 107  70 135 102  11 127 111  53  36 130 122  92 132  77  57  31   3  50 125  87 100 133  29 115 141  28  97  88  42  68  95  63 138 140  86  19  51  26  56   2  79 
  3  62  71 123 154 128  38 156  81 167 190 174  36  81  23  53 132   9   6 188 156  52  36  11  38 161   1  35  72   6 116   3   7  19 154  52  85  91 120 140 123 156  51  17 169  36  50  78 110 157 140  78  31 104 106  49 111 158  51  47  21 106  48 174   4  28  57  88 144  29  42 131  55  58 137 182 177 153 140   8 172   5  11  33 126  27 101  11  17  34 169 119 153  31   6 
  1   0   0   0   1   1   0   2   3   0   0   1   0   0   0   2   0   0   2   0   1   2   0   4   0   0   0   2   0   0   3   2   0   0   0   0   3   0   4   4   4   0   0   0   5   0   5   4   2   5   0   0   0   0   4   0   0   4   0   6   5   0   0   0   0   7   0   4   6   0   0   0   0 
 61  -1  -1  -1  39   2  -1  54  55  -1   0  82  -1  -1  -1  63  -1  -1   9  -1  27  90  -1  69  -1  -1  -1  65  -1  -1  95  15  -1  -1  -1  -1  83  -1  57  16  23  -1  -1  -1  17  -1  67  94  32  47  -1  -1  -1  -1  70  -1  -1  66  -1  68  71  -1  -1  -1  -1  79  -1  34  43  -1  -1  -1  -1 
7